{
  "files": {
    "main.css": "/static/react/css/main.7c44e43b.chunk.css",
    "main.js": "/static/react/js/main.5eee024f.chunk.js",
    "main.js.map": "/static/react/js/main.5eee024f.chunk.js.map",
    "runtime-main.js": "/static/react/js/runtime-main.3a44c33a.js",
    "runtime-main.js.map": "/static/react/js/runtime-main.3a44c33a.js.map",
    "css/2.829c9cb5.chunk.css": "/static/react/css/2.829c9cb5.chunk.css",
    "js/2.c47b54fb.chunk.js": "/static/react/js/2.c47b54fb.chunk.js",
    "js/2.c47b54fb.chunk.js.map": "/static/react/js/2.c47b54fb.chunk.js.map",
    "../../templates/index.html": "/static/react/../../templates/index.html",
    "css/2.829c9cb5.chunk.css.map": "/static/react/css/2.829c9cb5.chunk.css.map",
    "css/main.7c44e43b.chunk.css.map": "/static/react/css/main.7c44e43b.chunk.css.map",
    "js/2.c47b54fb.chunk.js.LICENSE.txt": "/static/react/js/2.c47b54fb.chunk.js.LICENSE.txt",
    "media/Lauren.jpg": "/static/react/media/Lauren.002dbd38.jpg",
    "media/Matthew.png": "/static/react/media/Matthew.51c63d23.png",
    "media/Sam.jpg": "/static/react/media/Sam.fce53270.jpg",
    "media/Wentao.jpg": "/static/react/media/Wentao.6e6c6db6.jpg",
    "media/Yinglei.jpg": "/static/react/media/Yinglei.7b010083.jpg",
    "precache-manifest.27901ae5ba7f71738eb991f6cc0dfb28.js": "/static/react/precache-manifest.27901ae5ba7f71738eb991f6cc0dfb28.js",
    "service-worker.js": "/static/react/service-worker.js"
  },
  "entrypoints": [
    "js/runtime-main.3a44c33a.js",
    "css/2.829c9cb5.chunk.css",
    "js/2.c47b54fb.chunk.js",
    "css/main.7c44e43b.chunk.css",
    "js/main.5eee024f.chunk.js"
  ]
}